<?xml version="1.0" encoding="utf-8"?>
<svg viewBox="0 0 500 500" xmlns="http://www.w3.org/2000/svg" xmlns:xlink="http://www.w3.org/1999/xlink">
  <defs>
    <pattern id="pattern-0" x="0" y="0" width="25" height="25" patternUnits="userSpaceOnUse" viewBox="0 0 100 100">
      <rect width="48.883" height="100" style="fill: rgb(180, 52, 52);"/>
      <rect x="48.883" width="51.117" height="100" style="fill: rgb(192, 229, 27);"/>
    </pattern>
    <pattern id="pattern-0-1" patternTransform="matrix(1.977737, -0.012205, 0.007978, 1.29277, 222.207779, 89.68869)" xlink:href="#pattern-0"/>
  </defs>
  <path d="M 231.879 42.677 C 231.879 42.677 165.179 140.198 185.111 147.662 C 197.027 152.125 232.422 128.315 233.377 128.66 C 235.803 129.536 273.156 156.263 282.353 145.764 C 300 125.62 232.803 42.677 231.879 42.677 Z" style="stroke: rgb(0, 0, 0); fill: rgb(216, 216, 216);"/>
  <path d="M 283.998 355.678 C 285.72 362.749 274.251 353.256 267.471 339.847 C 266.256 337.444 259.787 305.999 247.791 304.937 C 245.171 304.705 247.05 292.341 264.645 292.452 C 273.78 292.51 284.955 316.411 281.516 330.761 C 279.127 340.732 283.683 354.384 283.998 355.678 Z" style="stroke: rgb(0, 0, 0); fill: rgb(216, 216, 216);" transform="matrix(0.999391, -0.0349, 0.0349, 0.999391, -11.19008, 9.464193)"/>
  <path d="M 335.119 277.607 C 336.841 270.536 325.372 280.029 318.592 293.438 C 317.377 295.841 310.908 327.286 298.912 328.348 C 296.292 328.58 298.171 340.944 315.766 340.833 C 324.901 340.775 336.076 316.874 332.637 302.524 C 330.248 292.553 334.804 278.901 335.119 277.607 Z" style="stroke: rgb(0, 0, 0); fill: rgb(216, 216, 216);" transform="matrix(-0.087156, 0.996195, -0.996195, -0.087156, 651.065112, 19.444652)"/>
  <path d="M 331.158 315.368 C 332.88 322.439 321.411 312.946 314.631 299.537 C 313.416 297.134 306.947 265.689 294.951 264.627 C 292.331 264.395 294.21 252.031 311.805 252.142 C 320.94 252.2 332.115 276.101 328.676 290.451 C 326.287 300.422 330.843 314.074 331.158 315.368 Z" style="stroke: rgb(0, 0, 0); fill: rgb(216, 216, 216);" transform="matrix(0.241922, -0.970296, 0.970296, 0.241922, -39.46994, 519.395009)"/>
  <path d="M 313.546 232.171 C 315.268 225.1 303.799 234.593 297.019 248.001 C 295.804 250.404 289.335 281.848 277.339 282.91 C 274.719 283.142 276.598 295.506 294.193 295.395 C 303.328 295.337 314.503 271.436 311.064 257.086 C 308.675 247.116 313.231 233.465 313.546 232.171 Z" style="stroke: rgb(0, 0, 0); fill: rgb(216, 216, 216);" transform="matrix(0.927184, 0.374607, -0.374607, 0.927184, 119.849098, -91.407866)"/>
  <path d="M 198.598 284.811 C 200.32 291.882 188.851 282.389 182.071 268.981 C 180.856 266.578 174.387 235.134 162.391 234.072 C 159.771 233.84 161.65 221.476 179.245 221.587 C 188.38 221.645 199.555 245.546 196.116 259.896 C 193.727 269.866 198.283 283.517 198.598 284.811 Z" style="stroke: rgb(0, 0, 0); fill: rgb(216, 216, 216);" transform="matrix(-0.681998, 0.731354, -0.731354, -0.681998, 488.989676, 296.183379)"/>
  <path d="M 190.856 341.689 C 192.578 348.76 181.109 339.267 174.329 325.858 C 173.114 323.455 166.645 292.01 154.649 290.948 C 152.029 290.716 153.908 278.352 171.503 278.463 C 180.638 278.521 191.813 302.422 188.374 316.772 C 185.985 326.743 190.541 340.395 190.856 341.689 Z" style="stroke: rgb(0, 0, 0); fill: rgb(216, 216, 216);" transform="matrix(0.390731, 0.920505, -0.920505, 0.390731, 391.546973, 30.99315)"/>
  <path d="M 231.879 42.677 C 231.879 42.677 224.558 100 210.558 133.454 C 200.957 156.397 139.36 290.793 152.271 300 C 158.525 326.274 300 320.427 314.986 300 C 330.255 274.868 284.998 200 277.552 169.65 C 269.659 149.363 231.879 42.677 231.879 42.677 Z" style="fill: rgb(216, 216, 216); stroke: rgb(0, 0, 0);"/>
  <circle style="stroke: rgb(0, 0, 0); stroke-width: 2.58397px;" cx="96.845" cy="212.577" r="8.35" transform="matrix(0.359298, 0, 0, 0.3583, 197.173431, 183.754456)"/>
  <circle style="stroke: rgb(0, 0, 0); stroke-width: 2.58397px;" cx="96.845" cy="212.577" r="8.35" transform="matrix(0.359298, 0, 0, 0.3583, 209.69548, 183.754456)"/>
  <path d="M 176.217 313.005 C 177.6 318.738 168.385 311.041 162.937 300.17 C 161.961 298.222 156.764 272.727 147.126 271.865 C 145.021 271.677 146.53 261.653 160.667 261.743 C 168.006 261.79 176.985 281.169 174.222 292.804 C 172.303 300.888 175.963 311.956 176.217 313.005 Z" style="stroke: rgb(0, 0, 0); fill: rgb(216, 216, 216);" transform="matrix(-0.829038, -0.559193, 0.559193, -0.829038, 133.884844, 617.629963)"/>
  <circle style="fill: rgb(222, 211, 66);" cx="185.151" cy="248.729" r="18.274" transform="matrix(0.612373, 0, 0, 0.604138, 75.201965, 108.702362)"/>
  <circle style="fill: rgb(222, 211, 66);" cx="185.151" cy="248.729" r="18.274" transform="matrix(0.612373, 0, 0, 0.604138, 170.688034, 106.229599)"/>
  <g>
    <g transform="matrix(1, 0, 0, 1, 342.644196, 38.891079)">
      <path d="M 19.962 133.653 C 45.877 148.219 77.807 160.271 113.307 131.561 C 113.842 131.109 116.229 164.001 115.129 166.178 C 88.711 184.1 43.192 182.882 20.835 168.649 C 18.866 166.68 19.209 136.688 19.962 133.653 Z" style="stroke: rgb(0, 0, 0);"/>
      <path style="stroke: rgb(0, 0, 0);" d="M 19.779 152.701 C 18.882 152.595 65.117 178.814 115.251 152.47"/>
      <line style="stroke: rgb(0, 0, 0);" x1="67.176" y1="148.219" x2="67.282" y2="179.476"/>
      <line style="stroke: rgb(0, 0, 0);" x1="81.65" y1="148.219" x2="81.955" y2="179.476"/>
      <line style="stroke: rgb(0, 0, 0);" x1="95.081" y1="143.1" x2="95.123" y2="174.527"/>
      <line style="stroke: rgb(0, 0, 0);" x1="51.591" y1="148.219" x2="51.407" y2="179.476"/>
      <line style="stroke: rgb(0, 0, 0);" x1="38.964" y1="143.1" x2="39.305" y2="174.527"/>
      <line style="stroke: rgb(0, 0, 0);" x1="30.397" y1="143.1" x2="30.502" y2="174.527"/>
    </g>
    <g transform="matrix(1, 0, 0, 1, 170.753998, -90.213669)">
      <path d="M 204 302.587 C 207.609 302.587 218.424 289.881 241.532 295.526 C 257.98 289.348 267.97 294.742 272.879 302.983 C 272.879 302.983 261.649 308.203 242.901 308.558 C 218.726 309.016 204 302.587 204 302.587 Z" style="stroke: rgb(0, 0, 0); fill: rgb(212, 18, 18);"/>
      <path d="M 240.247 295.095 C 241.19 296.038 243.271 298.215 243.271 299.627" style="stroke: rgb(0, 0, 0); fill: rgb(216, 216, 216);"/>
    </g>
  </g>
  <path d="M 188.67 263.847 C 209.862 290.435 258.882 300 285.306 262.913" style="stroke: rgb(0, 0, 0); fill: none;"/>
  <path d="M 234.796 266.252 C 236.518 259.181 225.049 268.674 218.269 282.082 C 217.054 284.485 210.585 315.929 198.589 316.991 C 195.969 317.223 197.848 329.587 215.443 329.476 C 224.578 329.418 235.753 305.517 232.314 291.167 C 229.925 281.197 234.481 267.546 234.796 266.252 Z" style="stroke: rgb(0, 0, 0); fill: rgb(216, 216, 216);"/>
  <g transform="matrix(1, 0, 0, 1, 0.000075, 24.199575)">
    <ellipse style="stroke: rgb(0, 0, 0); fill: rgb(180, 52, 52);" cx="234.012" cy="182.297" rx="90.641" ry="11.85"/>
    <path d="M 182.518 181.648 C 182.518 177.605 167.918 36.17 177.393 32.525 C 234.97 10.373 247.492 19.907 288.783 24.519 C 291.442 24.816 301.124 180.997 290.485 182.58 C 241.492 189.868 182.518 181.648 182.518 181.648 Z" style="stroke: rgb(0, 0, 0); fill: url(#pattern-0-1);"/>
  </g>
</svg>